\relax 
\citation{edholm}
\citation{novelantenna}
\citation{noise}
\@writefile{toc}{\contentsline {section}{\numberline {I}Introduction}{1}\protected@file@percent }
\@writefile{toc}{\contentsline {section}{\numberline {II}The Terahertz Band}{1}\protected@file@percent }
\newlabel{sec:Thz}{{II}{1}}
\citation{UM-MIMO}
\@writefile{lof}{\contentsline {figure}{\numberline {1}{\ignorespaces Path loss in the THz band for different transmission distances.}}{2}\protected@file@percent }
\newlabel{fig:channel}{{1}{2}}
\@writefile{toc}{\contentsline {section}{\numberline {III}THz Protocol Stack Impact}{2}\protected@file@percent }
\newlabel{sec:stack}{{III}{2}}
\@writefile{toc}{\contentsline {subsection}{\numberline {\unhbox \voidb@x \hbox {III-A}}Physical Layer}{2}\protected@file@percent }
\@writefile{toc}{\contentsline {subsection}{\numberline {\unhbox \voidb@x \hbox {III-B}}Link Layer}{2}\protected@file@percent }
\@writefile{toc}{\contentsline {subsection}{\numberline {\unhbox \voidb@x \hbox {III-C}}Network Layer}{2}\protected@file@percent }
\@writefile{toc}{\contentsline {subsection}{\numberline {\unhbox \voidb@x \hbox {III-D}}Transport Layer}{2}\protected@file@percent }
\@writefile{toc}{\contentsline {section}{\numberline {IV}Beyond 5G}{2}\protected@file@percent }
\newlabel{sec:B5G}{{IV}{2}}
\citation{scattering1,scattering2}
\citation{smartantennas}
\@writefile{toc}{\contentsline {section}{\numberline {V}The Internet of Nano Things}{3}\protected@file@percent }
\newlabel{sec:IoNT}{{V}{3}}
\@writefile{lof}{\contentsline {figure}{\numberline {2}{\ignorespaces Intrabody nanonetworks for healthcare applications.}}{3}\protected@file@percent }
\newlabel{fig:nanol}{{2}{3}}
\@writefile{toc}{\contentsline {subsection}{\numberline {\unhbox \voidb@x \hbox {V-A}}Challenges}{3}\protected@file@percent }
\citation{iont}
\citation{iont2}
\citation{Persistentclocks}
\@writefile{toc}{\contentsline {subsection}{\numberline {\unhbox \voidb@x \hbox {V-B}}Compromises}{4}\protected@file@percent }
\@writefile{toc}{\contentsline {subsection}{\numberline {\unhbox \voidb@x \hbox {V-C}}Adressing with Nanomachines}{4}\protected@file@percent }
\@writefile{toc}{\contentsline {subsection}{\numberline {\unhbox \voidb@x \hbox {V-D}}Nanoscale communication}{4}\protected@file@percent }
\@writefile{toc}{\contentsline {subsection}{\numberline {\unhbox \voidb@x \hbox {V-E}}Further Research}{4}\protected@file@percent }
\bibcite{iont}{1}
\bibcite{terahertz}{2}
\bibcite{Persistentclocks}{3}
\bibcite{novelantenna}{4}
\bibcite{noise}{5}
\bibcite{UM-MIMO}{6}
\bibcite{scattering1}{7}
\bibcite{scattering2}{8}
\bibcite{smartantennas}{9}
\bibcite{edholm}{10}
\bibcite{iont1}{11}
\bibcite{iont2}{12}
\@writefile{toc}{\contentsline {subsection}{\numberline {\unhbox \voidb@x \hbox {V-F}}Subconclusion}{5}\protected@file@percent }
\@writefile{toc}{\contentsline {section}{\numberline {VI}Conclusion}{5}\protected@file@percent }
\newlabel{sec:conclusion}{{VI}{5}}
\@writefile{toc}{\contentsline {section}{References}{5}\protected@file@percent }
